…
mcbb_teams

## # A tibble: 49 x 5
##    team  opp_conf       season     wins losses
##    <chr> <chr>          <chr>     <dbl>  <dbl>
##  1 UVA   ACC            2018-2019    17      3
##  2 UVA   Colonial       2018-2019     2      0
##  3 UVA   Atlantic 10    2018-2019     3      0
##  4 UVA   MEAC           2018-2019     2      0
##  5 UVA   Conference USA 2018-2019     2      0
##  6 UVA   Big Ten        2018-2019     3      0
##  7 UVA   SEC            2018-2019     2      0
##  8 UVA   Big South      2018-2019     1      0
##  9 UVA   Big 12         2018-2019     2      0
## 10 UVA   Pac-12         2018-2019     1      0
## # … with 39 more rows
…
## Error: Tibble columns must have compatible sizes.
## * Size 3: Existing data.
## * Size 2: Column `season`.
## ℹ Only values of size one are recycled.

When used inside expand(), the nesting and crossing behavior can be operate in conjunction with one another.

To demonstrate we’ll first expand on team, season, and opponent conference, nesting all columns:

mcbb_teams %>%
  expand(nesting(team, season, opp_conf))

## # A tibble: 49 x 3
##    team    season    opp_conf               
##    <chr>   <chr>     <chr>                  
##  1 Gonzaga 2016-2017 ACC                    
##  2 Gonzaga 2016-2017 Big 12                 
##  3 Gonzaga 2016-2017 Big East               
##  4 Gonzaga 2016-2017 Big Ten                
##  5 Gonzaga 2016-2017 MAAC                   
##  6 Gonzaga 2016-2017 Mid-American Conference
##  7 Gonzaga 2016-2017 Mountain West          
##  8 Gonzaga 2016-2017 Northeast              
##  9 Gonzaga 2016-2017 Pac-12                 
## 10 Gonzaga 2016-2017 SEC                    
## # … with 39 more rows

The original data was organized with one row per team, season, and opponent conference. So the result of the above should yield the same number of rows.

nrow(mcbb_teams)

## [1] 49

Alternatively we can be selective with how we implement nesting. For example, if we wanted all combinations of team and season that were recorded but with the opponent conferences that either team could have played:

mcbb_teams %>%
  expand(nesting(team, season), opp_conf)

## # A tibble: 104 x 3
##    team    season    opp_conf      
##    <chr>   <chr>     <chr>         
##  1 Gonzaga 2016-2017 ACC           
##  2 Gonzaga 2016-2017 American East 
##  3 Gonzaga 2016-2017 Atlantic 10   
##  4 Gonzaga 2016-2017 Big 12        
##  5 Gonzaga 2016-2017 Big East      
##  6 Gonzaga 2016-2017 Big Sky       
##  7 Gonzaga 2016-2017 Big South     
##  8 Gonzaga 2016-2017 Big Ten       
##  9 Gonzaga 2016-2017 Colonial      
## 10 Gonzaga 2016-2017 Conference USA
## # … with 94 more rows

And if we wanted all unique combinations of team, season, and opponent conference:

mcbb_teams %>%
  expand(team, season, opp_conf)

## # A tibble: 156 x 3
##    team    season    opp_conf      
##    <chr>   <chr>     <chr>         
##  1 Gonzaga 2016-2017 ACC           
##  2 Gonzaga 2016-2017 American East 
##  3 Gonzaga 2016-2017 Atlantic 10   
##  4 Gonzaga 2016-2017 Big 12        
##  5 Gonzaga 2016-2017 Big East      
##  6 Gonzaga 2016-2017 Big Sky       
##  7 Gonzaga 2016-2017 Big South     
##  8 Gonzaga 2016-2017 Big Ten       
##  9 Gonzaga 2016-2017 Colonial      
## 10 Gonzaga 2016-2017 Conference USA
## # … with 146 more rows

The expand operation can also accept vectors passed on-the-fly. For example, if we wanted all combinations of team and opponent conferences observed, along with an arbitrary range of seasons:

seasons <- c("2015-2016","2016-2017","2017-2018", "2018-2019", "2019-2020")

mcbb_teams %>%
  expand(nesting(team, opp_conf), season = seasons)

## # A tibble: 170 x 3
##    team    opp_conf season   
##    <chr>   <chr>    <chr>    
##  1 Gonzaga ACC      2015-2016
##  2 Gonzaga ACC      2016-2017
##  3 Gonzaga ACC      2017-2018
##  4 Gonzaga ACC      2018-2019
##  5 Gonzaga ACC      2019-2020
##  6 Gonzaga Big 12   2015-2016
##  7 Gonzaga Big 12   2016-2017
##  8 Gonzaga Big 12   2017-2018
##  9 Gonzaga Big 12   2018-2019
## 10 Gonzaga Big 12   2019-2020
## # … with 160 more rows

complete()

When expanding a data frame to all combinations, we lost the values that might have been of interest. In the example above, that would be wins and losses. We could retrieve those values by joining the original data to the expanded. But a much easier method is to use complete():

mcbb_teams %>%
  complete(team, season, opp_conf)

## # A tibble: 156 x 5
##    team    season    opp_conf        wins losses
##    <chr>   <chr>     <chr>          <dbl>  <dbl>
##  1 Gonzaga 2016-2017 ACC                0      1
##  2 Gonzaga 2016-2017 American East     NA     NA
##  3 Gonzaga 2016-2017 Atlantic 10       NA     NA
##  4 Gonzaga 2016-2017 Big 12             2      0
##  5 Gonzaga 2016-2017 Big East           1      0
##  6 Gonzaga 2016-2017 Big Sky           NA     NA
##  7 Gonzaga 2016-2017 Big South         NA     NA
##  8 Gonzaga 2016-2017 Big Ten            1      0
##  9 Gonzaga 2016-2017 Colonial          NA     NA
## 10 Gonzaga 2016-2017 Conference USA    NA     NA
## # … with 146 more rows

By default combinations that don’t appear in the original data will have NA values populated in the corresponding columns. You can customize this behavior with the “fill” argument, which accepts a named list containing the value to fill for each given column:

mcbb_teams %>%
  complete(team, season, opp_conf, fill=list(wins = "No wins recorded", 
                                             losses = "No losses recorded"))

## # A tibble: 156 x 5
##    team    season    opp_conf       wins             losses            
##    <chr>   <chr>     <chr>          <chr>            <chr>             
##  1 Gonzaga 2016-2017 ACC            0                1                 
##  2 Gonzaga 2016-2017 American East  No wins recorded No losses recorded
##  3 Gonzaga 2016-2017 Atlantic 10    No wins recorded No losses recorded
##  4 Gonzaga 2016-2017 Big 12         2                0                 
##  5 Gonzaga 2016-2017 Big East       1                0                 
##  6 Gonzaga 2016-2017 Big Sky        No wins recorded No losses recorded
##  7 Gonzaga 2016-2017 Big South      No wins recorded No losses recorded
##  8 Gonzaga 2016-2017 Big Ten        1                0                 
##  9 Gonzaga 2016-2017 Colonial       No wins recorded No losses recorded
## 10 Gonzaga 2016-2017 Conference USA No wins recorded No losses recorded
## # … with 146 more rows

complete() also leverages the nesting and crossing helpers:

mcbb_teams %>%
  complete(nesting(team, season), opp_conf)

## # A tibble: 104 x 5
##    team    season    opp_conf        wins losses
##    <chr>   <chr>     <chr>          <dbl>  <dbl>
##  1 Gonzaga 2016-2017 ACC                0      1
##  2 Gonzaga 2016-2017 American East     NA     NA
##  3 Gonzaga 2016-2017 Atlantic 10       NA     NA
##  4 Gonzaga 2016-2017 Big 12             2      0
##  5 Gonzaga 2016-2017 Big East           1      0
##  6 Gonzaga 2016-2017 Big Sky           NA     NA
##  7 Gonzaga 2016-2017 Big South         NA     NA
##  8 Gonzaga 2016-2017 Big Ten            1      0
##  9 Gonzaga 2016-2017 Colonial          NA     NA
## 10 Gonzaga 2016-2017 Conference USA    NA     NA
## # … with 94 more rows
…
