…
Next create a data set to motivate the demonstration. This will be expanded, observation-level data with binary exposure and outcome variables:

dat <-
  tribble(~exposed, ~diseased,~n,
          TRUE, TRUE, 250,
          TRUE, FALSE,250,
          FALSE, TRUE, 50,
          FALSE, FALSE, 450) %>%
  uncount(n)

dat

## # A tibble: 1,000 x 2
##    exposed diseased
##    <lgl>   <lgl>   
##  1 TRUE    TRUE    
##  2 TRUE    TRUE    
##  3 TRUE    TRUE    
##  4 TRUE    TRUE    
##  5 TRUE    TRUE    
##  6 TRUE    TRUE    
##  7 TRUE    TRUE    
##  8 TRUE    TRUE    
##  9 TRUE    TRUE    
## 10 TRUE    TRUE    
## # … with 990 more rows
…
