---
title: "read_repo()"
date: 2020-07-26T11:10:14-05:00
categories: ["notes"]
tags: ["r"]
summary: "read lists of files directly from github"
---

Data hosted on GitHub can be retrieved through the web interface or by cloning a repo to a local machine. Files can also be read directly from “raw” links. For example, in rudeboybert/fivethirty you can could use the following R code to read in one of the .csv files in the repo:

library(tidyverse)
read_csv("https://raw.githubusercontent.com/rudeboybert/fivethirtyeight/master/data-raw/antiquities-act/actions_under_antiquities_act.csv")

## # A tibble: 344 x 9
##    current_name states original_name current_agency action date   year
##    <chr>        <chr>  <chr>         <chr>          <chr>  <chr> <dbl>
##  1 Devils Towe… Wyomi… <NA>          NPS            Estab… 9/24…  1906
##  2 El Morro Na… New M… <NA>          NPS            Estab… 12/8…  1906
##  3 El Morro Na… New M… <NA>          NPS            Enlar… 6/18…  1917
##  4 Montezuma C… Arizo… <NA>          NPS            Estab… 12/8…  1906
##  5 Montezuma C… Arizo… <NA>          NPS            Enlar… 2/23…  1937
##  6 Montezuma C… Arizo… <NA>          NPS            Enlar… 11/1…  1978
##  7 Montezuma C… Arizo… <NA>          NPS            Delet… 11/1…  1978
##  8 Petrified F… Arizo… Petrified Fo… NPS            Estab… 12/8…  1906
##  9 Petrified F… Arizo… Petrified Fo… NPS            Dimin… 7/31…  1911
## 10 Petrified F… Arizo… Petrified Fo… NPS            Enlar… 11/1…  1930
## # … with 334 more rows, and 2 more variables: pres_or_congress <chr>,
## #   acres_affected <chr>
…
