…
## Error in ~height: object 'height' not found

## make sure we're passing in tunneled name for the summarise variable we create
most <- function(.data, var, by = NULL) {
  .data %>%
    group_by({{ by }}) %>%
    summarise({{ var }} := max({{ var }}, na.rm = TRUE)) %>%
    arrange(desc({{ var }}))
}

## works !
most(starwars, height, species)

## # A tibble: 38 x 2
##    species  height
##    <chr>     <int>
##  1 Quermian    264
##  2 Wookiee     234
##  3 Kaminoan    229
##  4 Gungan      224
##  5 Kaleesh     216
##  6 Pau'an      206
##  7 Human       202
##  8 Droid       200
##  9 Besalisk    198
## 10 Cerean      198
## # … with 28 more rows
…
