…
Maximize an Rstudio pane: SHIFT + CTRL + 1 (1,2,3,4 for each pane clockwise)

Build a package: SHIFT + CMD + B

Load functions from package after building: SHIFT + CMD + L

My friends (and fellow Charlottesville R Users) Jeff Boichuk and Steve Mortimer have also developed an R package (CrossR) that includes a data frame with all Rstudio shortcuts:

devtools::install_github("jeffboichuk/CrossR")
library(CrossR)

shortcuts

## # A tibble: 122 x 4
##    category description        mac             windows         
##    <chr>    <chr>              <chr>           <chr>           
##  1 Build    Build All          Shift + Cmd + B Ctrl + Shift + B
##  2 Build    Check Package      Shift + Cmd + E Ctrl + Shift + E
##  3 Build    Compile PDF        Shift + Cmd + K Ctrl + Shift + K
##  4 Build    Devtools Load All  Shift + Cmd + L Ctrl + Shift + L
##  5 Build    Knit Document      Shift + Cmd + K Ctrl + Shift + K
##  6 Build    Preview HTML       Shift + Cmd + K Ctrl + Shift + K
##  7 Build    Roxygenize Package Shift + Cmd + D Ctrl + Shift + D
##  8 Build    Test Package       Shift + Cmd + T Ctrl + Shift + T
##  9 Console  Console Clear      Ctrl + L        Ctrl + L        
## 10 Debug    Debug Breakpoint   Shift + F9      Shift + F9      
## # … with 112 more rows
…
